2020-03-19 21:19:29.6526 INFO Here is info message from the controller DNR.
2020-03-19 21:19:30.2302 DEBUG Here is debug message from the controller DNR.
2020-03-19 21:19:30.2908 WARN Here is warn message from the controller DNR.
2020-03-19 21:19:30.3102 ERROR Here is error message from the controller DNR.
